{
  "schemaVersion": 1,
  "id": "biow0rks_instrumentation",
  "version": "${version}",

  "name": "biow0rks_instrumentation",
  "description": "biow0rks_instrumentation",
  "authors": [
    "Biom4st3r"
  ],
  "contact": {
    "homepage": "https://gitlab.com/biom4st3r",
    "sources": "https://gitlab.com/biom4st3r"
  },

  "license": "CC0-1.0",
  "icon": "assets/modid/icon.png",

  "environment": "*",
  "entrypoints": {
    "main0": [
      "biom4st3r.libs.biow0rks.instrumentation.LibInit"
    ],
    "client0": [
      "com.biom4st3r.biow0rks.ModInitClient"
    ],
    "preLaunch":[
      "biom4st3r.libs.biow0rks.instrumentation.Biow0rksPL"
    ],
    "biow0rks:supplyTransformers0":[
      "biom4st3r.libs.biw0rks.Biow0rksTransformers"
    ]
  },
  "mixins": [
  ],

  "depends": {
    "fabricloader": ">=0.4.0",
    "fabric": "*"
  },
  "suggests": {
    "flamingo": "*"
  }
}
