{
  "schemaVersion": 1,
  "id": "bioecs",
  "version": "${version}",

  "name": "bioecs",
  "description": "bioecs",
  "authors": [
    "Biom4st3r"
  ],
  "contact": {
    "homepage": "https://gitlab.com/biom4st3r",
    "sources": "https://gitlab.com/biom4st3r"
  },

  "license": "GNU LGPLv3",
  "icon": "assets/modid/icon.png",

  "environment": "*",
  "entrypoints": {
    "main": [
      "biom4st3r.libs.bioecs.LibInit"
    ],
    "client": [
      "biom4st3r.libs.bioecs.ClientLibInit"
    ]
  },
  "mixins": [
    "bioecs.mixins.json"
  ],

  "depends": {
    "fabricloader": ">=0.4.0",
    "fabric": "*"
  },
  "suggests": {
    "flamingo": "*"
  }
}
